Learn - Tuning text models
…
Text as data

The text data we’ll use in this article are from Amazon:

This dataset consists of reviews of fine foods from amazon. The data span a period of more than 10 years, including all ~500,000 reviews up to October 2012. Reviews include product and user information, ratings, and a plaintext review.

This article uses a small subset of the total reviews available at the original source. We sampled a single review from 5,000 random products and allocated 80% of these data to the training set, with the remaining 1,000 reviews held out for the test set.

There is a column for the product, a column for the text of the review, and a factor column for the outcome variable. The outcome is whether the reviewer gave the product a five-star rating or not.

library(tidymodels)

data("small_fine_foods")
training_data
#> # A tibble: 4,000 x 3
#>    product    review                                                       score
#>    <chr>      <chr>                                                        <fct>
#>  1 B000J0LSBG "this stuff is  not stuffing  its  not good at all  save yo… other
#>  2 B000EYLDYE "I absolutely LOVE this dried fruit.  LOVE IT.  Whenever I … great
#>  3 B0026LIO9A "GREAT DEAL, CONVENIENT TOO.  Much cheaper than WalMart and… great
#>  4 B00473P8SK "Great flavor, we go through a ton of this sauce! I discove… great
#>  5 B001SAWTNM "This is excellent salsa/hot sauce, but you can get it for … great
#>  6 B000FAG90U "Again, this is the best dogfood out there.  One suggestion… great
#>  7 B006BXTCEK "The box I received was filled with teas, hot chocolates, a… other
#>  8 B002GWH5OY "This is delicious coffee which compares favorably with muc… great
#>  9 B003R0MFYY "Don't let these little tiny cans fool you.  They pack a lo… great
#> 10 B001EO5ZXI "One of the nicest, smoothest cup of chai I've made. Nice m… great
#> # … with 3,990 more rows
…
Grid search

Let’s begin our tuning with grid search and a regular grid. For glmnet models, evaluating penalty values is fairly cheap because of the use of the “submodel-trick”. The grid will use 20 penalty values, 5 mixture values, and 3 values for the number of hash features.

five_star_grid <- 
  crossing(
    penalty = 10^seq(-3, 0, length = 20),
    mixture = c(0.01, 0.25, 0.50, 0.75, 1),
    num_terms = 2^c(8, 10, 12)
  )
five_star_grid
#> # A tibble: 300 x 3
#>    penalty mixture num_terms
#>      <dbl>   <dbl>     <dbl>
#>  1   0.001    0.01       256
#>  2   0.001    0.01      1024
#>  3   0.001    0.01      4096
#>  4   0.001    0.25       256
#>  5   0.001    0.25      1024
#>  6   0.001    0.25      4096
#>  7   0.001    0.5        256
#>  8   0.001    0.5       1024
#>  9   0.001    0.5       4096
#> 10   0.001    0.75       256
#> # … with 290 more rows
…
This took a while to complete! What do the results look like? Let’s get the resampling estimates of the area under the ROC curve for each tuning parameter:

grid_roc <- 
  collect_metrics(five_star_glmnet) %>% 
  arrange(desc(mean))
grid_roc
#> # A tibble: 300 x 9
#>    penalty mixture num_terms .metric .estimator  mean     n std_err .config     
#>      <dbl>   <dbl>     <dbl> <chr>   <chr>      <dbl> <int>   <dbl> <chr>       
#>  1 0.695      0.01      4096 roc_auc binary     0.818    10 0.00739 Preprocesso…
#>  2 0.483      0.01      4096 roc_auc binary     0.818    10 0.00776 Preprocesso…
#>  3 0.0379     0.25      4096 roc_auc binary     0.816    10 0.00753 Preprocesso…
#>  4 0.336      0.01      4096 roc_auc binary     0.815    10 0.00822 Preprocesso…
#>  5 0.0183     0.5       4096 roc_auc binary     0.814    10 0.00776 Preprocesso…
#>  6 0.0127     0.75      4096 roc_auc binary     0.814    10 0.00781 Preprocesso…
#>  7 0.00886    1         4096 roc_auc binary     0.813    10 0.00794 Preprocesso…
#>  8 0.0264     0.25      4096 roc_auc binary     0.813    10 0.00790 Preprocesso…
#>  9 1          0.01      4096 roc_auc binary     0.812    10 0.00764 Preprocesso…
#> 10 0.234      0.01      4096 roc_auc binary     0.811    10 0.00838 Preprocesso…
#> # … with 290 more rows
…
five_star_search
#> # Tuning results
#> # 10-fold cross-validation 
#> # A tibble: 310 x 5
#>    splits             id     .metrics         .notes           .iter
#>    <list>             <chr>  <list>           <list>           <int>
#>  1 <split [3.6K/400]> Fold01 <tibble [5 × 7]> <tibble [0 × 1]>     0
#>  2 <split [3.6K/400]> Fold02 <tibble [5 × 7]> <tibble [0 × 1]>     0
#>  3 <split [3.6K/400]> Fold03 <tibble [5 × 7]> <tibble [0 × 1]>     0
#>  4 <split [3.6K/400]> Fold04 <tibble [5 × 7]> <tibble [0 × 1]>     0
#>  5 <split [3.6K/400]> Fold05 <tibble [5 × 7]> <tibble [0 × 1]>     0
#>  6 <split [3.6K/400]> Fold06 <tibble [5 × 7]> <tibble [0 × 1]>     0
#>  7 <split [3.6K/400]> Fold07 <tibble [5 × 7]> <tibble [0 × 1]>     0
#>  8 <split [3.6K/400]> Fold08 <tibble [5 × 7]> <tibble [0 × 1]>     0
#>  9 <split [3.6K/400]> Fold09 <tibble [5 × 7]> <tibble [0 × 1]>     0
#> 10 <split [3.6K/400]> Fold10 <tibble [5 × 7]> <tibble [0 × 1]>     0
#> # … with 300 more rows
…
Extracted results

Let’s return to the grid search results and examine the results of our extract function. For each fitted model, a tibble was saved that contains the relationship between the number of predictors and the penalty value. Let’s look at these results for the best model:

params <- select_best(five_star_glmnet, metric = "roc_auc")
params
#> # A tibble: 1 x 4
#>   penalty mixture num_terms .config               
#>     <dbl>   <dbl>     <dbl> <chr>                 
#> 1   0.695    0.01      4096 Preprocessor3_Model019

Recall that we saved the glmnet results in a tibble. The column five_star_glmnet$.extracts is a list of tibbles. As an example, the first element of the list is:

five_star_glmnet$.extracts[[1]]
#> # A tibble: 300 x 5
#>    num_terms penalty mixture .extracts          .config               
#>        <dbl>   <dbl>   <dbl> <list>             <chr>                 
#>  1       256       1    0.01 <tibble [100 × 2]> Preprocessor1_Model001
#>  2       256       1    0.01 <tibble [100 × 2]> Preprocessor1_Model002
#>  3       256       1    0.01 <tibble [100 × 2]> Preprocessor1_Model003
#>  4       256       1    0.01 <tibble [100 × 2]> Preprocessor1_Model004
#>  5       256       1    0.01 <tibble [100 × 2]> Preprocessor1_Model005
#>  6       256       1    0.01 <tibble [100 × 2]> Preprocessor1_Model006
#>  7       256       1    0.01 <tibble [100 × 2]> Preprocessor1_Model007
#>  8       256       1    0.01 <tibble [100 × 2]> Preprocessor1_Model008
#>  9       256       1    0.01 <tibble [100 × 2]> Preprocessor1_Model009
#> 10       256       1    0.01 <tibble [100 × 2]> Preprocessor1_Model010
#> # … with 290 more rows

More nested tibbles! Let’s unnest() the five_star_glmnet$.extracts column:

library(tidyr)
extracted <- 
  five_star_glmnet %>% 
  dplyr::select(id, .extracts) %>% 
  unnest(cols = .extracts)
extracted
#> # A tibble: 3,000 x 6
#>    id     num_terms penalty mixture .extracts          .config               
#>    <chr>      <dbl>   <dbl>   <dbl> <list>             <chr>                 
#>  1 Fold01       256       1    0.01 <tibble [100 × 2]> Preprocessor1_Model001
#>  2 Fold01       256       1    0.01 <tibble [100 × 2]> Preprocessor1_Model002
#>  3 Fold01       256       1    0.01 <tibble [100 × 2]> Preprocessor1_Model003
#>  4 Fold01       256       1    0.01 <tibble [100 × 2]> Preprocessor1_Model004
#>  5 Fold01       256       1    0.01 <tibble [100 × 2]> Preprocessor1_Model005
#>  6 Fold01       256       1    0.01 <tibble [100 × 2]> Preprocessor1_Model006
#>  7 Fold01       256       1    0.01 <tibble [100 × 2]> Preprocessor1_Model007
#>  8 Fold01       256       1    0.01 <tibble [100 × 2]> Preprocessor1_Model008
#>  9 Fold01       256       1    0.01 <tibble [100 × 2]> Preprocessor1_Model009
#> 10 Fold01       256       1    0.01 <tibble [100 × 2]> Preprocessor1_Model010
#> # … with 2,990 more rows

One thing to realize here is that tune_grid() may not fit all of the models that are evaluated. In this case, for each value of mixture and num_terms, the model is fit over all penalty values (this is a feature of this particular model and is not generally true for other engines). To select the best parameter set, we can exclude the penalty column in extracted:

extracted <- 
  extracted %>% 
  dplyr::select(-penalty) %>% 
  inner_join(params, by = c("num_terms", "mixture")) %>% 
  # Now remove it from the final results
  dplyr::select(-penalty)
extracted
#> # A tibble: 200 x 6
#>    id     num_terms mixture .extracts       .config.x          .config.y        
#>    <chr>      <dbl>   <dbl> <list>          <chr>              <chr>            
#>  1 Fold01      4096    0.01 <tibble [100 ×… Preprocessor3_Mod… Preprocessor3_Mo…
#>  2 Fold01      4096    0.01 <tibble [100 ×… Preprocessor3_Mod… Preprocessor3_Mo…
#>  3 Fold01      4096    0.01 <tibble [100 ×… Preprocessor3_Mod… Preprocessor3_Mo…
#>  4 Fold01      4096    0.01 <tibble [100 ×… Preprocessor3_Mod… Preprocessor3_Mo…
#>  5 Fold01      4096    0.01 <tibble [100 ×… Preprocessor3_Mod… Preprocessor3_Mo…
#>  6 Fold01      4096    0.01 <tibble [100 ×… Preprocessor3_Mod… Preprocessor3_Mo…
#>  7 Fold01      4096    0.01 <tibble [100 ×… Preprocessor3_Mod… Preprocessor3_Mo…
#>  8 Fold01      4096    0.01 <tibble [100 ×… Preprocessor3_Mod… Preprocessor3_Mo…
#>  9 Fold01      4096    0.01 <tibble [100 ×… Preprocessor3_Mod… Preprocessor3_Mo…
#> 10 Fold01      4096    0.01 <tibble [100 ×… Preprocessor3_Mod… Preprocessor3_Mo…
#> # … with 190 more rows

Now we can get at the results that we want using another unnest():

extracted <- 
  extracted %>% 
  unnest(col = .extracts) # <- these contain a `penalty` column
extracted
#> # A tibble: 20,000 x 7
#>    id     num_terms mixture penalty num_vars .config.x         .config.y        
#>    <chr>      <dbl>   <dbl>   <dbl>    <int> <chr>             <chr>            
#>  1 Fold01      4096    0.01    9.01        0 Preprocessor3_Mo… Preprocessor3_Mo…
#>  2 Fold01      4096    0.01    8.60        1 Preprocessor3_Mo… Preprocessor3_Mo…
#>  3 Fold01      4096    0.01    8.21        2 Preprocessor3_Mo… Preprocessor3_Mo…
#>  4 Fold01      4096    0.01    7.84        2 Preprocessor3_Mo… Preprocessor3_Mo…
#>  5 Fold01      4096    0.01    7.48        3 Preprocessor3_Mo… Preprocessor3_Mo…
#>  6 Fold01      4096    0.01    7.14        3 Preprocessor3_Mo… Preprocessor3_Mo…
#>  7 Fold01      4096    0.01    6.82        4 Preprocessor3_Mo… Preprocessor3_Mo…
#>  8 Fold01      4096    0.01    6.51        6 Preprocessor3_Mo… Preprocessor3_Mo…
#>  9 Fold01      4096    0.01    6.21        7 Preprocessor3_Mo… Preprocessor3_Mo…
#> 10 Fold01      4096    0.01    5.93        7 Preprocessor3_Mo… Preprocessor3_Mo…
#> # … with 19,990 more rows
…
