Learn - Statistical analysis of contingency tables
…
      Introduction

This article only requires that you have the tidymodels package installed.

In this vignette, we’ll walk through conducting a \(\chi^2\) (chi-squared) test of independence and a chi-squared goodness of fit test using infer. We’ll start out with a chi-squared test of independence, which can be used to test the association between two categorical variables. Then, we’ll move on to a chi-squared goodness of fit test, which tests how well the distribution of one categorical variable can be approximated by some theoretical distribution.

Throughout this vignette, we’ll make use of the ad_data data set (available in the modeldata package, which is part of tidymodels). This data set is related to cognitive impairment in 333 patients from Craig-Schapiro et al (2011). See ?ad_data for more information on the variables included and their source. One of the main research questions in these data were how a person’s genetics related to the Apolipoprotein E gene affect their cognitive skills. The data shows:

library(tidymodels) # Includes the infer package

data(ad_data, package = "modeldata")
ad_data %>%
  select(Genotype, Class)
#> # A tibble: 333 × 2
#>    Genotype Class   
#>    <fct>    <fct>   
#>  1 E3E3     Control 
#>  2 E3E4     Control 
#>  3 E3E4     Control 
#>  4 E3E4     Control 
#>  5 E3E3     Control 
#>  6 E4E4     Impaired
#>  7 E2E3     Control 
#>  8 E2E3     Control 
#>  9 E3E3     Control 
#> 10 E2E3     Impaired
#> # … with 323 more rows
…
