Learn - Working with model coefficients
…
Note that the output shows many values of the penalty despite our specification of penalty = 0.1. It turns out that this model fits a “path” of penalty values.  Even though we are interested in a value of 0.1, we can get the model coefficients for many associated values of the penalty from the same model object.

Let’s look at two different approaches to obtaining the coefficients. Both will use the tidy() method. One will tidy a glmnet object and the other will tidy a tidymodels object.

Using glmnet penalty values

This glmnet fit contains multiple penalty values which depend on the data set; changing the data (or the mixture amount) often produces a different set of values. For this data set, there are 55 penalties available. To get the set of penalties produced for this data set, we can extract the engine fit and tidy:

glmnet_fit %>% 
  extract_fit_engine() %>% 
  tidy() %>% 
  rename(penalty = lambda) %>%   # <- for consistent naming
  filter(term != "(Intercept)")
#> # A tibble: 99 × 5
#>    term        step estimate penalty dev.ratio
#>    <chr>      <dbl>    <dbl>   <dbl>     <dbl>
#>  1 Clark_Lake     2   0.0753    5.56     0.127
#>  2 Clark_Lake     3   0.145     5.07     0.234
#>  3 Clark_Lake     4   0.208     4.62     0.324
#>  4 Clark_Lake     5   0.266     4.21     0.400
#>  5 Clark_Lake     6   0.319     3.83     0.463
#>  6 Clark_Lake     7   0.368     3.49     0.515
#>  7 Clark_Lake     8   0.413     3.18     0.559
#>  8 Clark_Lake     9   0.454     2.90     0.596
#>  9 Clark_Lake    10   0.491     2.64     0.627
#> 10 Clark_Lake    11   0.526     2.41     0.653
#> # … with 89 more rows
…
glmnet_coefs <- 
  glmnet_res %>% 
  select(id, .extracts) %>% 
  unnest(.extracts) %>% 
  select(id, mixture, .extracts) %>% 
  group_by(id, mixture) %>%          # ┐
  slice(1) %>%                       # │ Remove the redundant results
  ungroup() %>%                      # ┘
  unnest(.extracts)

glmnet_coefs %>% 
  select(id, penalty, mixture, term, estimate) %>% 
  filter(term != "(Intercept)")
#> # A tibble: 300 × 5
#>    id         penalty mixture term       estimate
#>    <chr>        <dbl>   <dbl> <chr>         <dbl>
#>  1 Bootstrap1 1           0.1 Clark_Lake    0.391
#>  2 Bootstrap1 0.464       0.1 Clark_Lake    0.485
#>  3 Bootstrap1 0.215       0.1 Clark_Lake    0.590
#>  4 Bootstrap1 0.1         0.1 Clark_Lake    0.680
#>  5 Bootstrap1 0.0464      0.1 Clark_Lake    0.746
#>  6 Bootstrap1 0.0215      0.1 Clark_Lake    0.793
#>  7 Bootstrap1 0.01        0.1 Clark_Lake    0.817
#>  8 Bootstrap1 0.00464     0.1 Clark_Lake    0.828
#>  9 Bootstrap1 0.00215     0.1 Clark_Lake    0.834
#> 10 Bootstrap1 0.001       0.1 Clark_Lake    0.837
#> # … with 290 more rows
…
