Learn - Iterative Bayesian optimization of a classification model
…
The resulting tibble is a stacked set of rows of the rsample object with an additional column for the iteration number:

search_res
#> # Tuning results
#> # 10-fold cross-validation 
#> # A tibble: 510 × 5
#>    splits             id     .metrics         .notes           .iter
#>    <list>             <chr>  <list>           <list>           <int>
#>  1 <split [1362/152]> Fold01 <tibble [5 × 7]> <tibble [0 × 3]>     0
#>  2 <split [1362/152]> Fold02 <tibble [5 × 7]> <tibble [0 × 3]>     0
#>  3 <split [1362/152]> Fold03 <tibble [5 × 7]> <tibble [0 × 3]>     0
#>  4 <split [1362/152]> Fold04 <tibble [5 × 7]> <tibble [0 × 3]>     0
#>  5 <split [1363/151]> Fold05 <tibble [5 × 7]> <tibble [0 × 3]>     0
#>  6 <split [1363/151]> Fold06 <tibble [5 × 7]> <tibble [0 × 3]>     0
#>  7 <split [1363/151]> Fold07 <tibble [5 × 7]> <tibble [0 × 3]>     0
#>  8 <split [1363/151]> Fold08 <tibble [5 × 7]> <tibble [0 × 3]>     0
#>  9 <split [1363/151]> Fold09 <tibble [5 × 7]> <tibble [0 × 3]>     0
#> 10 <split [1363/151]> Fold10 <tibble [5 × 7]> <tibble [0 × 3]>     0
#> # … with 500 more rows

As with grid search, we can summarize the results over resamples:

estimates <- 
  collect_metrics(search_res) %>% 
  arrange(.iter)

estimates
#> # A tibble: 55 × 10
#>        cost    rbf_sigma num_comp .metric .estimator  mean     n std_err .config
#>       <dbl>        <dbl>    <int> <chr>   <chr>      <dbl> <int>   <dbl> <chr>  
#>  1  0.00207      1.56e-5       10 roc_auc binary     0.345    10 0.114   Prepro…
#>  2  0.348        4.43e-2        1 roc_auc binary     0.773    10 0.0106  Prepro…
#>  3 15.5          1.28e-7       20 roc_auc binary     0.345    10 0.116   Prepro…
#>  4  1.45         2.04e-3       15 roc_auc binary     0.876    10 0.0121  Prepro…
#>  5  0.0304       6.41e-9        5 roc_auc binary     0.345    10 0.113   Prepro…
#>  6  0.00386      5.13e-3       19 roc_auc binary     0.880    10 0.0108  Iter1  
#>  7  0.245        3.34e-3        2 roc_auc binary     0.797    10 0.0103  Iter2  
#>  8 25.8          5.43e-3       20 roc_auc binary     0.888    10 0.00921 Iter3  
#>  9  0.403        9.44e-1       20 roc_auc binary     0.387    10 0.0833  Iter4  
#> 10  0.0315       2.28e-3       20 roc_auc binary     0.881    10 0.0114  Iter5  
#> # … with 45 more rows, and 1 more variable: .iter <int>
…
