Learn - Model tuning via grid search
…
First, we can use the formula interface:

set.seed(35)
formula_res <-
  svm_mod %>% 
  tune_grid(
    Class ~ .,
    resamples = iono_rs,
    metrics = roc_vals,
    control = ctrl
  )
formula_res
#> # Tuning results
#> # Bootstrap sampling 
#> # A tibble: 30 × 5
#>    splits            id          .metrics          .notes           .predictions
#>    <list>            <chr>       <list>            <list>           <list>      
#>  1 <split [351/120]> Bootstrap01 <tibble [10 × 6]> <tibble [0 × 3]> <tibble>    
#>  2 <split [351/130]> Bootstrap02 <tibble [10 × 6]> <tibble [0 × 3]> <tibble>    
#>  3 <split [351/137]> Bootstrap03 <tibble [10 × 6]> <tibble [0 × 3]> <tibble>    
#>  4 <split [351/141]> Bootstrap04 <tibble [10 × 6]> <tibble [0 × 3]> <tibble>    
#>  5 <split [351/131]> Bootstrap05 <tibble [10 × 6]> <tibble [0 × 3]> <tibble>    
#>  6 <split [351/131]> Bootstrap06 <tibble [10 × 6]> <tibble [0 × 3]> <tibble>    
#>  7 <split [351/127]> Bootstrap07 <tibble [10 × 6]> <tibble [0 × 3]> <tibble>    
#>  8 <split [351/123]> Bootstrap08 <tibble [10 × 6]> <tibble [0 × 3]> <tibble>    
#>  9 <split [351/131]> Bootstrap09 <tibble [10 × 6]> <tibble [0 × 3]> <tibble>    
#> 10 <split [351/117]> Bootstrap10 <tibble [10 × 6]> <tibble [0 × 3]> <tibble>    
#> # … with 20 more rows
…
Next, we can use the same syntax but pass a recipe in as the pre-processor argument:

set.seed(325)
recipe_res <-
  svm_mod %>% 
  tune_grid(
    iono_rec,
    resamples = iono_rs,
    metrics = roc_vals,
    control = ctrl
  )
recipe_res
#> # Tuning results
#> # Bootstrap sampling 
#> # A tibble: 30 × 5
#>    splits            id          .metrics          .notes           .predictions
#>    <list>            <chr>       <list>            <list>           <list>      
#>  1 <split [351/120]> Bootstrap01 <tibble [10 × 6]> <tibble [0 × 3]> <tibble>    
#>  2 <split [351/130]> Bootstrap02 <tibble [10 × 6]> <tibble [0 × 3]> <tibble>    
#>  3 <split [351/137]> Bootstrap03 <tibble [10 × 6]> <tibble [0 × 3]> <tibble>    
#>  4 <split [351/141]> Bootstrap04 <tibble [10 × 6]> <tibble [0 × 3]> <tibble>    
#>  5 <split [351/131]> Bootstrap05 <tibble [10 × 6]> <tibble [0 × 3]> <tibble>    
#>  6 <split [351/131]> Bootstrap06 <tibble [10 × 6]> <tibble [0 × 3]> <tibble>    
#>  7 <split [351/127]> Bootstrap07 <tibble [10 × 6]> <tibble [0 × 3]> <tibble>    
#>  8 <split [351/123]> Bootstrap08 <tibble [10 × 6]> <tibble [0 × 3]> <tibble>    
#>  9 <split [351/131]> Bootstrap09 <tibble [10 × 6]> <tibble [0 × 3]> <tibble>    
#> 10 <split [351/117]> Bootstrap10 <tibble [10 × 6]> <tibble [0 × 3]> <tibble>    
#> # … with 20 more rows
…
Out-of-sample predictions

If we used save_pred = TRUE to keep the out-of-sample predictions for each resample during tuning, we can obtain those predictions, along with the tuning parameters and resample identifier, using collect_predictions():

collect_predictions(recipe_res)
#> # A tibble: 38,740 × 8
#>    id          .pred_bad .pred_good  .row    cost  rbf_sigma Class .config      
#>    <chr>           <dbl>      <dbl> <int>   <dbl>      <dbl> <fct> <chr>        
#>  1 Bootstrap01     0.333      0.667     1 0.00296 0.00000383 good  Preprocessor…
#>  2 Bootstrap01     0.333      0.667     9 0.00296 0.00000383 good  Preprocessor…
#>  3 Bootstrap01     0.333      0.667    10 0.00296 0.00000383 bad   Preprocessor…
#>  4 Bootstrap01     0.333      0.667    12 0.00296 0.00000383 bad   Preprocessor…
#>  5 Bootstrap01     0.333      0.667    14 0.00296 0.00000383 bad   Preprocessor…
#>  6 Bootstrap01     0.333      0.667    15 0.00296 0.00000383 good  Preprocessor…
#>  7 Bootstrap01     0.333      0.667    16 0.00296 0.00000383 bad   Preprocessor…
#>  8 Bootstrap01     0.334      0.666    22 0.00296 0.00000383 bad   Preprocessor…
#>  9 Bootstrap01     0.333      0.667    23 0.00296 0.00000383 good  Preprocessor…
#> 10 Bootstrap01     0.334      0.666    24 0.00296 0.00000383 bad   Preprocessor…
#> # … with 38,730 more rows
…
